sector,trade_date,feeadj_return,sales,redemptions,net_flow,income_reinvest,mf_feeadj_return,mf_sales,mf_redemptions,mf_net_flow,mf_income_reinvest,mf_feeadj_return
Other Fixed Income,2015-04-01,2.05690093877,31684853762.2,31751178805.6,3125444977.99,3191770021.43,5.87050963331,376030936.11,31152672.21,347433876.06,2555612.16,5.87050963331
US Equity Mid Cap,2015-05-01,8.8625875619,57795725310.1,46756540935.1,11071410449.2,32226074.25,9.34022460694,393756359.96,451409684.43,-57653324.47,0.0,9.34022460694
US Equity Large Cap Value,2015-04-01,11.1378124508,89257126590.5,68360449538.4,21408969330.3,512292278.18,12.9953252033,59686881.0,81687634.76,-22000753.76,0.0,12.9953252033
US Fixed Income,2015-05-01,4.36209052911,3.01840022332e+11,2.00030093447e+11,1.29766924675e+11,27956995790.6,6.17670610549,269858401.04,13714653.61,265632357.73,9488610.3,6.17670610549
High Yield Fixed Income,2015-05-01,2.03484216779,62508368015.6,29984874746.1,41466096040.1,8942602770.61,-0.94169088812,67710665.16,11695988.66,64136211.29,8121534.79,-0.94169088812
Emerging Markets Fixed Income,2015-05-01,0.319602792696,14700949523.7,23514721745.8,-6695233679.71,2118538542.31,1.74973913043,111609.52,618190.77,-506581.25,0.0,1.74973913043
Multialternative,2015-05-01,3.49351064435,24502394420.1,7750859097.97,16751616873.5,81551.43,3.59778640777,64873349.91,1775353.07,63097996.84,0.0,3.59778640777
Moderate Allocation,2015-06-01,6.70561324261,63251555061.6,52247102746.6,24174153825.4,13169701510.4,6.79,3100828.18,2693194.09,457201.66,49567.57,6.79
Aggressive Allocation,2015-04-01,6.9595139401,9262791438.79,4434367818.66,4951131017.6,122707397.47,,5254306.23,3777749.48,1476556.75,0.0,
US Equity Large Cap Value,2015-05-01,11.1892948712,69032699301.7,50786097928.4,18973199202.1,726597828.76,12.950795756,56350683.31,129160202.17,-72809518.86,0.0,12.950795756
Cautious Allocation,2015-06-01,5.0366386388,39715934754.8,20830939870.3,23190958462.1,4305963577.61,-6.697,857559.76,4493763.69,-3381458.28,254745.65,-6.697
US Equity Mid Cap,2015-04-01,8.82118745904,88137035219.4,70708191640.1,17433333546.3,4489967.01,9.24022864322,379994043.67,502167347.17,-122173303.5,0.0,9.24022864322
Other Fixed Income,2015-05-01,2.10192752567,27024694812.4,28298739343.9,1135652485.59,2409697017.15,5.87753939394,433621838.6,43247380.84,393578665.21,3204207.45,5.87753939394
US Fixed Income,2015-04-01,4.3706565434,3.46529245253e+11,2.4841155601e+11,1.25057252576e+11,26939563332.6,6.15287476366,264079522.96,13971234.46,259037412.59,8929124.09,6.15287476366
High Yield Fixed Income,2015-04-01,2.04148072559,60825959102.4,33783815784.6,35857353123.3,8815209805.51,-0.953234682081,38905457.61,10009847.57,37035663.19,8140053.15,-0.953234682081
Global Fixed Income,2015-06-01,3.04512783116,22450259779.0,20824741576.8,3233014218.95,1607496016.81,6.1988781014,61640956.75,81766781.32,-6870925.49,13254899.08,6.1988781014
US Municipal Fixed Income,2015-06-01,9.59362076955,92481253704.1,68951143416.8,30867434348.8,7337324061.43,8.78276116648,442183367.98,102497568.22,391801088.84,52115289.08,8.78276116648
US Money Market,2015-06-01,-0.150379071953,6.11065885298e+12,1.95046378927e+11,5.9157321521e+12,119678046.57,-0.241016393443,88721159863.4,238122010.31,88485993075.6,2955222.47,-0.241016393443
Emerging Markets Fixed Income,2015-04-01,0.236424022605,16396900636.6,11028279368.3,7391637871.49,2023016603.13,1.98181434599,377265.83,1754938.71,-1377672.88,0.0,1.98181434599
US Equity Small Cap,2015-06-01,3.9156489683,49755426942.7,44083579764.4,7415655984.28,1743808806.03,5.94900552486,58042577.34,46718026.57,11324606.93,56.16,5.94900552486
Aggressive Allocation,2015-05-01,6.90328492647,6806900095.67,4514674672.73,2300628700.83,8403277.89,,2697954.46,2585918.04,112036.42,0.0,
Energy Sector Equity,2015-06-01,-5.5887416986,8189159722.74,2708756830.1,5573086354.16,92683461.52,11.3857432432,1728163.2,17551.8,1727706.13,17094.73,11.3857432432
Multialternative,2015-04-01,3.47635894763,25686413372.9,8084386964.39,17602050484.8,24076.3,3.60149122807,23648377.88,1897332.62,21751045.26,0.0,3.60149122807
US Equity Large Cap Value,2015-06-01,11.1429332483,85400393503.5,63318959973.3,42861069311.6,20779635781.5,12.7643434783,52303829.72,59007577.64,4889113.6,11592861.52,12.7643434783
Other Fixed Income,2015-06-01,2.14588341891,32159893237.9,28197377084.1,6690715525.42,2728199371.67,5.73684921039,347341993.6,75733158.2,289849864.43,18241029.03,5.73684921039
Cautious Allocation,2015-05-01,4.99690989358,37358596953.2,17221479346.7,23116890699.9,2979773093.33,-6.71333333333,2114134.9,3742432.24,-1628297.34,0.0,-6.71333333333
US Municipal Fixed Income,2015-05-01,9.61456252153,79375574660.7,50040037994.5,36568053825.9,7232517159.74,8.78474382602,652141851.85,106475992.03,598906407.01,53240547.19,8.78474382602
US Money Market,2015-05-01,-0.149937514039,5.33570285475e+12,1.49226967909e+11,5.18658822880e+12,112341964.31,-0.24477054429,47397274536.3,118362811.31,47281958924.6,3047199.65,-0.24477054429
Global Fixed Income,2015-05-01,2.98262191563,22841723386.2,24634793867.8,-940928552.21,852141929.41,6.29472697637,80686321.39,112590632.13,-31904310.74,0.0,6.29472697637
Energy Sector Equity,2015-05-01,-4.45324250839,6849630630.84,1907878677.06,5735293617.12,793541663.34,11.35,3429458.45,0.0,3429458.45,0.0,11.35
Moderate Allocation,2015-04-01,6.73825329467,66021939012.3,54153507130.9,12346393845.6,477961964.15,6.79,7216630.95,425749.96,6790880.99,0.0,6.79
Aggressive Allocation,2015-06-01,7.02801872687,8189558860.65,4518558176.97,4210683599.21,539682915.53,,1489058.41,1139460.94,423034.82,73437.35,
US Equity Small Cap,2015-05-01,3.86320539468,41063683087.5,34171142164.4,6892540923.12,0.0,4.56239070282,37813303.86,47481713.76,-9668409.9,0.0,4.56239070282
Cautious Allocation,2015-04-01,4.97825748487,46128622919.1,20646484795.8,28408285108.0,2926146984.71,-6.70166666667,2130574.56,3118696.57,-988122.01,0.0,-6.70166666667
US Equity Mid Cap,2015-06-01,8.83956978808,71387653495.4,56296295058.4,17110795998.6,2019437561.61,8.86056272586,417709050.24,316629846.17,125348434.33,24269230.26,8.86056272586
Global Fixed Income,2015-04-01,2.95840740355,36738142406.1,20665205776.8,16840153422.7,767216793.3,6.29641744548,80020977.48,46808007.6,33212969.88,0.0,6.29641744548
US Municipal Fixed Income,2015-04-01,9.60368378859,1.00347541165e+11,54779073761.2,52822515225.4,7254047821.89,8.787100286,1657894075.04,104872795.26,1603801050.81,50779771.03,8.787100286
US Money Market,2015-04-01,-0.150737188257,4.94936669492e+12,1.82904646665e+11,4.76656492979e+12,102881535.15,-0.316924882629,414117965.19,1099187.38,413054149.5,35371.69,-0.316924882629
US Fixed Income,2015-06-01,4.38861085321,3.76919686424e+11,2.82004636165e+11,1.27664986868e+11,32749936608.8,6.20756026562,419171277.91,16954449.95,411702753.62,9485925.66,6.20756026562
High Yield Fixed Income,2015-06-01,2.00836935378,69290758666.4,75227063946.7,4591329027.48,10527634307.8,-0.942866329812,40546885.46,14313899.52,33628199.82,7395213.88,-0.942866329812
Emerging Markets Fixed Income,2015-06-01,0.356202129187,12311024869.7,35395045713.5,-21043085027.9,2040935815.92,1.96778162912,643251.18,584592.78,149559.46,90901.06,1.96778162912
Multialternative,2015-06-01,3.41160609821,28420974096.2,8220727466.81,20320921638.0,120675008.63,3.6007121058,30424160.39,7480807.45,23472691.65,529338.71,3.6007121058
US Equity Small Cap,2015-04-01,3.85334386695,71265543409.4,70832335353.0,442064411.92,8856355.54,4.43923913043,81930033.57,56976794.43,24953239.14,0.0,4.43923913043
Energy Sector Equity,2015-04-01,-6.03086771352,9241312298.48,2693180474.34,7317809529.53,769677705.39,11.402,188195.0,0.0,188195.0,0.0,11.402
Moderate Allocation,2015-05-01,6.75376934679,45318985730.9,40154424677.7,5597427430.85,432866377.68,6.79,1937579.34,1210587.09,726992.25,0.0,6.79
